<?xml version="1.0" standalone="no"?>
<!DOCTYPE svg PUBLIC "-//W3C//DTD SVG 20010904//EN"
 "http://www.w3.org/TR/2001/REC-SVG-20010904/DTD/svg10.dtd">
<svg version="1.0" xmlns="http://www.w3.org/2000/svg"
 width="260.000000pt" height="260.000000pt" viewBox="0 0 260.000000 260.000000"
 preserveAspectRatio="xMidYMid meet">
<metadata>
Created by potrace 1.11, written by Peter Selinger 2001-2013
</metadata>
<g transform="translate(0.000000,260.000000) scale(0.100000,-0.100000)"
fill="#000000" stroke="none">
<path d="M1350 2474 c0 -3 72 -78 161 -167 601 -606 952 -958 960 -962 5 -4 9
219 9 564 l0 571 -565 0 c-311 0 -565 -3 -565 -6z"/>
<path d="M1012 2272 c-63 -64 -316 -321 -564 -569 l-450 -453 571 0 571 0 0
570 c0 314 -3 570 -7 569 -5 0 -59 -53 -121 -117z"/>
<path d="M1250 1820 l0 -570 565 0 c311 0 565 3 565 6 0 3 -181 188 -402 410
-222 223 -474 477 -561 564 -87 88 -160 160 -162 160 -3 0 -5 -256 -5 -570z"/>
<path d="M1250 580 c0 -314 2 -570 5 -570 2 0 75 71 161 158 85 86 340 343
566 570 l410 412 -571 0 -571 0 0 -570z"/>
</g>
</svg>
